^C:\PROGRAMOWANIE_C++\KURS_C++\10_TABLICE_ZNAKOWE_VS_STRING\10_TABLICE_ZNAKOWE\STDAFX.CPP
/c /ZI /nologo /W3 /WX- /sdl /Od /D _DEBUG /D _CONSOLE /D _UNICODE /D UNICODE /Gm /EHsc /RTC1 /MDd /GS /fp:precise /Zc:wchar_t /Zc:forScope /Zc:inline /Yc"stdafx.h" /Fp"X64\DEBUG\10_TABLICE_ZNAKOWE.PCH" /Fo"X64\DEBUG\\" /Fd"X64\DEBUG\VC140.PDB" /Gd /TP C:\PROGRAMOWANIE_C++\KURS_C++\10_TABLICE_ZNAKOWE_VS_STRING\10_TABLICE_ZNAKOWE\STDAFX.CPP
^C:\PROGRAMOWANIE_C++\KURS_C++\10_TABLICE_ZNAKOWE_VS_STRING\10_TABLICE_ZNAKOWE\10_TABLICE_ZNAKOWE.CPP
/c /ZI /nologo /W3 /WX- /sdl /Od /D _DEBUG /D _CONSOLE /D _UNICODE /D UNICODE /Gm /EHsc /RTC1 /MDd /GS /fp:precise /Zc:wchar_t /Zc:forScope /Zc:inline /Yu"stdafx.h" /Fp"X64\DEBUG\10_TABLICE_ZNAKOWE.PCH" /Fo"X64\DEBUG\\" /Fd"X64\DEBUG\VC140.PDB" /Gd /TP C:\PROGRAMOWANIE_C++\KURS_C++\10_TABLICE_ZNAKOWE_VS_STRING\10_TABLICE_ZNAKOWE\10_TABLICE_ZNAKOWE.CPP
