^C:\PROGRAMOWANIE_C++\KURS_C++\10_TABLICE_ZNAKOWE_VS_STRING\10_TABLICE_ZNAKOWE\STDAFX.CPP
C:\PROGRAMOWANIE_C++\KURS_C++\10_TABLICE_ZNAKOWE_VS_STRING\10_TABLICE_ZNAKOWE\X64\DEBUG\10_TABLICE_ZNAKOWE.PCH
C:\PROGRAMOWANIE_C++\KURS_C++\10_TABLICE_ZNAKOWE_VS_STRING\10_TABLICE_ZNAKOWE\X64\DEBUG\VC140.PDB
C:\PROGRAMOWANIE_C++\KURS_C++\10_TABLICE_ZNAKOWE_VS_STRING\10_TABLICE_ZNAKOWE\X64\DEBUG\VC140.IDB
C:\PROGRAMOWANIE_C++\KURS_C++\10_TABLICE_ZNAKOWE_VS_STRING\10_TABLICE_ZNAKOWE\X64\DEBUG\STDAFX.OBJ
^C:\PROGRAMOWANIE_C++\KURS_C++\10_TABLICE_ZNAKOWE_VS_STRING\10_TABLICE_ZNAKOWE\10_TABLICE_ZNAKOWE.CPP
C:\PROGRAMOWANIE_C++\KURS_C++\10_TABLICE_ZNAKOWE_VS_STRING\10_TABLICE_ZNAKOWE\X64\DEBUG\VC140.PDB
C:\PROGRAMOWANIE_C++\KURS_C++\10_TABLICE_ZNAKOWE_VS_STRING\10_TABLICE_ZNAKOWE\X64\DEBUG\VC140.IDB
C:\PROGRAMOWANIE_C++\KURS_C++\10_TABLICE_ZNAKOWE_VS_STRING\10_TABLICE_ZNAKOWE\X64\DEBUG\10_TABLICE_ZNAKOWE.OBJ
