^C:\PROGRAMOWANIE_C++\KURS_C++\9_TABLICE_JEDNOWYMIAROWE_PRZEKAZYWANIE_DO_FUNKCJI\CONSOLEAPPLICATION1\CONSOLEAPPLICATION1\STDAFX.CPP
C:\PROGRAMOWANIE_C++\KURS_C++\9_TABLICE_JEDNOWYMIAROWE_PRZEKAZYWANIE_DO_FUNKCJI\CONSOLEAPPLICATION1\CONSOLEAPPLICATION1\X64\DEBUG\CONSOLEAPPLICATION1.PCH
C:\PROGRAMOWANIE_C++\KURS_C++\9_TABLICE_JEDNOWYMIAROWE_PRZEKAZYWANIE_DO_FUNKCJI\CONSOLEAPPLICATION1\CONSOLEAPPLICATION1\X64\DEBUG\VC140.PDB
C:\PROGRAMOWANIE_C++\KURS_C++\9_TABLICE_JEDNOWYMIAROWE_PRZEKAZYWANIE_DO_FUNKCJI\CONSOLEAPPLICATION1\CONSOLEAPPLICATION1\X64\DEBUG\VC140.IDB
C:\PROGRAMOWANIE_C++\KURS_C++\9_TABLICE_JEDNOWYMIAROWE_PRZEKAZYWANIE_DO_FUNKCJI\CONSOLEAPPLICATION1\CONSOLEAPPLICATION1\X64\DEBUG\STDAFX.OBJ
^C:\PROGRAMOWANIE_C++\KURS_C++\9_TABLICE_JEDNOWYMIAROWE_PRZEKAZYWANIE_DO_FUNKCJI\CONSOLEAPPLICATION1\CONSOLEAPPLICATION1\CONSOLEAPPLICATION1.CPP
C:\PROGRAMOWANIE_C++\KURS_C++\9_TABLICE_JEDNOWYMIAROWE_PRZEKAZYWANIE_DO_FUNKCJI\CONSOLEAPPLICATION1\CONSOLEAPPLICATION1\X64\DEBUG\VC140.PDB
C:\PROGRAMOWANIE_C++\KURS_C++\9_TABLICE_JEDNOWYMIAROWE_PRZEKAZYWANIE_DO_FUNKCJI\CONSOLEAPPLICATION1\CONSOLEAPPLICATION1\X64\DEBUG\VC140.IDB
C:\PROGRAMOWANIE_C++\KURS_C++\9_TABLICE_JEDNOWYMIAROWE_PRZEKAZYWANIE_DO_FUNKCJI\CONSOLEAPPLICATION1\CONSOLEAPPLICATION1\X64\DEBUG\CONSOLEAPPLICATION1.OBJ
