﻿  stdafx.cpp
  ConsoleApplication1.cpp
c:\programowanie_c++\kurs_c++\9_tablice_jednowymiarowe_przekazywanie_do_funkcji\consoleapplication1\consoleapplication1\consoleapplication1.cpp(35): warning C4244: 'argument': conversion from 'time_t' to 'unsigned int', possible loss of data
c:\programowanie_c++\kurs_c++\9_tablice_jednowymiarowe_przekazywanie_do_funkcji\consoleapplication1\consoleapplication1\consoleapplication1.cpp(64): warning C4244: 'return': conversion from 'int' to 'float', possible loss of data
c:\programowanie_c++\kurs_c++\9_tablice_jednowymiarowe_przekazywanie_do_funkcji\consoleapplication1\consoleapplication1\consoleapplication1.cpp(65): warning C4244: 'return': conversion from 'int' to 'float', possible loss of data
  ConsoleApplication1.vcxproj -> C:\programowanie_c++\Kurs_c++\9_tablice_jednowymiarowe_przekazywanie_do_funkcji\ConsoleApplication1\x64\Debug\ConsoleApplication1.exe
  ConsoleApplication1.vcxproj -> C:\programowanie_c++\Kurs_c++\9_tablice_jednowymiarowe_przekazywanie_do_funkcji\ConsoleApplication1\x64\Debug\ConsoleApplication1.pdb (Full PDB)
