^C:\PROGRAMOWANIE_C++\KURS_C++\15_WSKAZNIKI_PRZEKAZYWANIE_DO_FUNKCJI\WSKAZNIKI_PRZEKAZYWANIE_FUNKCJI\STDAFX.CPP
C:\PROGRAMOWANIE_C++\KURS_C++\15_WSKAZNIKI_PRZEKAZYWANIE_DO_FUNKCJI\WSKAZNIKI_PRZEKAZYWANIE_FUNKCJI\DEBUG\WSKAZNIKI_PRZEKAZYWANIE_FUNKCJI.PCH
C:\PROGRAMOWANIE_C++\KURS_C++\15_WSKAZNIKI_PRZEKAZYWANIE_DO_FUNKCJI\WSKAZNIKI_PRZEKAZYWANIE_FUNKCJI\DEBUG\VC140.PDB
C:\PROGRAMOWANIE_C++\KURS_C++\15_WSKAZNIKI_PRZEKAZYWANIE_DO_FUNKCJI\WSKAZNIKI_PRZEKAZYWANIE_FUNKCJI\DEBUG\VC140.IDB
C:\PROGRAMOWANIE_C++\KURS_C++\15_WSKAZNIKI_PRZEKAZYWANIE_DO_FUNKCJI\WSKAZNIKI_PRZEKAZYWANIE_FUNKCJI\DEBUG\STDAFX.OBJ
^C:\PROGRAMOWANIE_C++\KURS_C++\15_WSKAZNIKI_PRZEKAZYWANIE_DO_FUNKCJI\WSKAZNIKI_PRZEKAZYWANIE_FUNKCJI\WSKAZNIKI_PRZEKAZYWANIE_FUNKCJI.CPP
C:\PROGRAMOWANIE_C++\KURS_C++\15_WSKAZNIKI_PRZEKAZYWANIE_DO_FUNKCJI\WSKAZNIKI_PRZEKAZYWANIE_FUNKCJI\DEBUG\VC140.PDB
C:\PROGRAMOWANIE_C++\KURS_C++\15_WSKAZNIKI_PRZEKAZYWANIE_DO_FUNKCJI\WSKAZNIKI_PRZEKAZYWANIE_FUNKCJI\DEBUG\VC140.IDB
C:\PROGRAMOWANIE_C++\KURS_C++\15_WSKAZNIKI_PRZEKAZYWANIE_DO_FUNKCJI\WSKAZNIKI_PRZEKAZYWANIE_FUNKCJI\DEBUG\WSKAZNIKI_PRZEKAZYWANIE_FUNKCJI.OBJ
