^C:\PROGRAMOWANIE_C++\KURS_C++\15_WSKAZNIKI_PRZEKAZYWANIE_DO_FUNKCJI\WSKAZNIKI_PRZEKAZYWANIE_FUNKCJI\DEBUG\STDAFX.OBJ|C:\PROGRAMOWANIE_C++\KURS_C++\15_WSKAZNIKI_PRZEKAZYWANIE_DO_FUNKCJI\WSKAZNIKI_PRZEKAZYWANIE_FUNKCJI\DEBUG\WSKAZNIKI_PRZEKAZYWANIE_FUNKCJI.OBJ
C:\PROGRAMOWANIE_C++\KURS_C++\15_WSKAZNIKI_PRZEKAZYWANIE_DO_FUNKCJI\WSKAZNIKI_PRZEKAZYWANIE_FUNKCJI\DEBUG\WSKAZNIKI_PRZEKAZYWANIE_FUNKCJI.ILK
C:\PROGRAMOWANIE_C++\KURS_C++\15_WSKAZNIKI_PRZEKAZYWANIE_DO_FUNKCJI\WSKAZNIKI_PRZEKAZYWANIE_FUNKCJI\DEBUG\WSKAZNIKI_PRZEKAZYWANIE_FUNKCJI.EXE
C:\PROGRAMOWANIE_C++\KURS_C++\15_WSKAZNIKI_PRZEKAZYWANIE_DO_FUNKCJI\WSKAZNIKI_PRZEKAZYWANIE_FUNKCJI\DEBUG\WSKAZNIKI_PRZEKAZYWANIE_FUNKCJI.PDB
