^C:\PROGRAMOWANIE_C++\KURS_C++\12_STRUKTURY\STRUKTURY.CPP\STDAFX.CPP
C:\PROGRAMOWANIE_C++\KURS_C++\12_STRUKTURY\STRUKTURY.CPP\RELEASE\STRUKTURY.CPP.PCH
C:\PROGRAMOWANIE_C++\KURS_C++\12_STRUKTURY\STRUKTURY.CPP\RELEASE\VC140.PDB
C:\PROGRAMOWANIE_C++\KURS_C++\12_STRUKTURY\STRUKTURY.CPP\RELEASE\STDAFX.OBJ
^C:\PROGRAMOWANIE_C++\KURS_C++\12_STRUKTURY\STRUKTURY.CPP\STRUKTURY.CPP.CPP
C:\PROGRAMOWANIE_C++\KURS_C++\12_STRUKTURY\STRUKTURY.CPP\RELEASE\VC140.PDB
C:\PROGRAMOWANIE_C++\KURS_C++\12_STRUKTURY\STRUKTURY.CPP\RELEASE\STRUKTURY.CPP.OBJ
