^C:\PROGRAMOWANIE_C++\KURS_C++\12_STRUKTURY\STRUKTURY.CPP\X64\RELEASE\STDAFX.OBJ|C:\PROGRAMOWANIE_C++\KURS_C++\12_STRUKTURY\STRUKTURY.CPP\X64\RELEASE\STRUKTURY.CPP.OBJ
C:\PROGRAMOWANIE_C++\KURS_C++\12_STRUKTURY\STRUKTURY.CPP\X64\RELEASE\STRUKTURY.CPP.EXE
C:\PROGRAMOWANIE_C++\KURS_C++\12_STRUKTURY\STRUKTURY.CPP\X64\RELEASE\STRUKTURY.CPP.IPDB
C:\PROGRAMOWANIE_C++\KURS_C++\12_STRUKTURY\STRUKTURY.CPP\X64\RELEASE\STRUKTURY.CPP.IOBJ
C:\PROGRAMOWANIE_C++\KURS_C++\12_STRUKTURY\STRUKTURY.CPP\X64\RELEASE\STRUKTURY.CPP.PDB
