^C:\PROGRAMOWANIE_C++\KURS_C++\13_PROJEKT\PROJEKT1\STDAFX.CPP
/c /ZI /nologo /W3 /WX- /sdl /Od /D _DEBUG /D _CONSOLE /D _UNICODE /D UNICODE /Gm /EHsc /RTC1 /MDd /GS /fp:precise /Zc:wchar_t /Zc:forScope /Zc:inline /Yc"stdafx.h" /Fp"X64\DEBUG\PROJEKT1.PCH" /Fo"X64\DEBUG\\" /Fd"X64\DEBUG\VC140.PDB" /Gd /TP C:\PROGRAMOWANIE_C++\KURS_C++\13_PROJEKT\PROJEKT1\STDAFX.CPP
^C:\PROGRAMOWANIE_C++\KURS_C++\13_PROJEKT\PROJEKT1\LIBRARY.CPP
/c /ZI /nologo /W3 /WX- /sdl /Od /D _DEBUG /D _CONSOLE /D _UNICODE /D UNICODE /Gm /EHsc /RTC1 /MDd /GS /fp:precise /Zc:wchar_t /Zc:forScope /Zc:inline /Yu"stdafx.h" /Fp"X64\DEBUG\PROJEKT1.PCH" /Fo"X64\DEBUG\\" /Fd"X64\DEBUG\VC140.PDB" /Gd /TP C:\PROGRAMOWANIE_C++\KURS_C++\13_PROJEKT\PROJEKT1\LIBRARY.CPP
^C:\PROGRAMOWANIE_C++\KURS_C++\13_PROJEKT\PROJEKT1\MAIN.CPP
/c /ZI /nologo /W3 /WX- /sdl /Od /D _DEBUG /D _CONSOLE /D _UNICODE /D UNICODE /Gm /EHsc /RTC1 /MDd /GS /fp:precise /Zc:wchar_t /Zc:forScope /Zc:inline /Yu"stdafx.h" /Fp"X64\DEBUG\PROJEKT1.PCH" /Fo"X64\DEBUG\\" /Fd"X64\DEBUG\VC140.PDB" /Gd /TP C:\PROGRAMOWANIE_C++\KURS_C++\13_PROJEKT\PROJEKT1\MAIN.CPP
